[gd_scene load_steps=4 format=2]

[ext_resource path="res://Plants/template/Plant.tscn" type="PackedScene" id=1]
[ext_resource path="res://assets/flower.png" type="Texture" id=2]

[sub_resource type="CircleShape2D" id=1]
radius = 5.0

[node name="Plant" instance=ExtResource( 1 )]
production = {
}
consumption = {
}
storage = {
}
machine_name = "Flower"
info_string = "Good first plant."

[node name="Sprite" parent="rotation_node" index="0"]
position = Vector2( 1.12247, -38.1637 )
texture = ExtResource( 2 )

[node name="CollisionPolygon2D" type="CollisionPolygon2D" parent="rotation_node/StaticBody2D" index="0"]
polygon = PoolVector2Array( -1.94631, 3.41322, -15.0871, -33.5591, -5.06445, -78.9949, 8.52174, -78.3267, 15.8717, -43.5817 )

[node name="CollisionShape2D" type="CollisionShape2D" parent="rotation_node/Area2D" index="0"]
shape = SubResource( 1 )

[node name="CollisionPolygon2D2" type="CollisionPolygon2D" parent="rotation_node/detection_area" index="0"]
polygon = PoolVector2Array( -1.94631, 3.41322, -15.0871, -33.5591, -5.06445, -78.9949, 8.52174, -78.3267, 15.8717, -43.5817 )

[editable path="info_box"]
