[gd_scene load_steps=2 format=2]

[ext_resource path="res://Lines/template/LineJoint.gd" type="Script" id=1]

[node name="DampedSpringJoint2D" type="DampedSpringJoint2D"]
length = 5.0
damping = 3.15
script = ExtResource( 1 )
