[gd_scene load_steps=4 format=2]

[ext_resource path="res://Machines/template/Machine.tscn" type="PackedScene" id=1]
[ext_resource path="res://Machines/template/IOPoint.tscn" type="PackedScene" id=2]
[ext_resource path="res://assets/water_splitter.png" type="Texture" id=3]

[node name="Machine" instance=ExtResource( 1 )]
production = {
}
consumption = {
}
storage = {
"water": 30.0
}
machine_name = "Water Splitter"
info_string = "Splits a water line in two streams."

[node name="Sprite" parent="rotation_node" index="0"]
texture = ExtResource( 3 )

[node name="CollisionPolygon2D" type="CollisionPolygon2D" parent="rotation_node/StaticBody2D" index="0"]
polygon = PoolVector2Array( -24.1326, 48.9837, 24.073, 48.454, 24.6028, 19.3188, 55.8569, -14.5841, 18.7757, -47.4274, 0.764832, -27.2976, -18.8352, -49.0166, -55.9164, -16.703, -24.6623, 18.789 )

[node name="CollisionPolygon2D2" type="CollisionPolygon2D" parent="rotation_node/detection_area" index="0"]
polygon = PoolVector2Array( -24.1326, 48.9837, 24.073, 48.454, 24.6028, 19.3188, 55.8569, -14.5841, 18.7757, -47.4274, 0.764832, -27.2976, -18.8352, -49.0166, -55.9164, -16.703, -24.6623, 18.789 )

[node name="water input" parent="rotation_node" index="3" instance=ExtResource( 2 )]
position = Vector2( 0, 55.6218 )
rate = 3.0

[node name="water output 1" parent="rotation_node" index="4" instance=ExtResource( 2 )]
position = Vector2( -44.4974, -37.0812 )
io = 1
rate = 2.0

[node name="water output 2" parent="rotation_node" index="5" instance=ExtResource( 2 )]
position = Vector2( 42.9082, -37.0812 )
io = 1
rate = 2.0

[editable path="info_box"]
